<svg xmlns="http://www.w3.org/2000/svg" width="252.96" height="41.93">
  <path d="M.14 36.3c.08-3.09.31-6.27.5-7.06l.37-1.44.56.64c.3.36.6.8.66.97.2.59.83-.1.85-.92 0-.45.12-1.07.25-1.4.29-.74.66-.2.7 1.04.02.98.4 1.2.62.37.13-.5.14-.5.17 0 .04.64.64.71.64.08 0-.55.5-.6.67-.08.07.21.14-.07.16-.63.05-1.79.65-1.73.72.07.05 1.2.1 1.2 2.24.33.92-.37.94-.44 1.16-2.89.3-3.37.6-4.15.9-2.28.22 1.47.73 1.96.77.75.04-1.13.74-2.79 1-2.36.31.5 1.37-1.48 1.38-2.58 0-.65.07-.73.3-.38.16.25.29.74.3 1.1 0 .36.18.84.4 1.06.22.22.48.6.57.84.15.38.18.38.2.02.04-.7.9.61.92 1.38 0 .88.3 1.6.66 1.6.15 0 .26-.24.23-.53s-.04-.92-.02-1.4c.06-1.45.7-.44.8 1.24.05.79.11 1.5.15 1.59s.08.67.1 1.32c.03 1.13.09 1.18 1.58 1.7l1.54.52.22-1.25.23-1.24.38 1.2c.22.66.4 1 .41.77.02-.32.14-.28.47.15.43.57.44.57.45 0 0-.57.02-.57.41-.03.37.5.43.43.63-.77l.23-1.32.39.89c.2.49.32 1.04.25 1.22-.07.2.06.5.29.69.72.6 1.05-.8 1.27-5.39.17-3.57.31-4.49.82-5.32l.61-1.02.54 1.02c.49.9.54 1.93.55 9.93.01 7.73.08 8.93.47 8.93.24 0 .45-.2.45-.45s.2-.45.45-.45.45.13.45.29c0 .16.47.01 1.05-.33 1.08-.64 1.38-1.6.71-2.27-.24-.25-.12-.47.45-.85.77-.5.79-.58.79-3.9 0-1.95-.13-3.49-.3-3.6-.61-.37-.27-.65 1.12-.92 1.11-.21 1.4-.39 1.34-.8-.05-.3.1-.52.34-.52.28 0 .39.2.3.56-.12.45.1.62 1.22.9 1.3.33 1.7.7 1.13 1.06-.14.08-.28 1.55-.32 3.25l-.06 3.1.89.65.88.66 2.55-.86c1.85-.63 2.63-.77 2.88-.53.24.24.33.07.33-.61 0-.52.14-1.03.31-1.14.2-.12.3-1.1.26-2.38-.07-2.44.17-3.2.75-2.4.3.42.5.45 1.02.17.36-.2.63-.45.6-.57-.02-.11.05-.42.17-.68.11-.26.24-2.54.27-5.07l.07-4.61.86-.29c.64-.21.93-.18 1.14.13.2.29.33.3.43.06.1-.22.44-.26.96-.12.74.2.8.34.76 1.6-.05 1.38-.04 1.4.82 1.22.55-.11.88-.05.88.16 0 .19.13.34.3.34s.3-.2.3-.45.26-.45.6-.45c.33 0 .6.1.6.22 0 .13.88.24 1.95.25 1.29.01 2.11.17 2.39.45.45.46.59 2.23.29 3.76-.16.8-.1.96.51 1.12.39.1.75.05.8-.1.15-.42 1.86-.38 1.86.04 0 .23.13.22.44-.04.33-.27.68-.28 1.37-.04.86.3.91.27.83-.35-.08-.56.05-.66.8-.66.79 0 .9.1.83.75l-.07.75.57-.74c.5-.63.77-.72 2.02-.64 3 .2 2.96.2 2.86-.37-.07-.44.04-.51.52-.36.48.15.58.1.45-.26a4.7 4.7 0 0 1 .33-1.98c.39-1.18.6-1.45.89-1.2.25.2 2.9.28 7.82.23l7.44-.08-.03-1.82c-.02-1-.08-1.96-.13-2.14s.65-1.23 1.56-2.33c.9-1.1 1.72-2.36 1.8-2.8.11-.54.33-.78.65-.73.34.06.78-.49 1.39-1.71.69-1.38.93-1.66 1.05-1.2.08.32.37.58.63.58.27 0 1.2.4 2.08.9.88.5 1.68.9 1.8.9.1 0 .2-.62.2-1.37V4.98l.97.21c1.22.26 2.03.68 2.03 1.04 0 .7 1.36-.28 1.5-1.08.2-1.1 1.45-1.43 1.7-.44.1.34.25.62.36.62s2.06-.63 4.35-1.39l4.16-1.38-.16-1.16c-.13-.94-.05-1.18.4-1.33.96-.3 1.79.37 1.79 1.44 0 1.22 1.33 4.12 1.89 4.12.23 0 .66.27.96.6.69.76.84.75 1.2-.08.43-.98 1.18-.85 1.3.23.05.5.5 1.33 1.02 1.87l.94.97-.4 3.63c-.23 2.23-.27 3.74-.1 3.9.15.16.7.2 1.23.1.85-.17.96-.31.96-1.2 0-1.07.46-1.32 1.17-.65.32.3.43.3.54 0 .21-.58 1.82-.46 1.98.15.07.3.15.1.17-.43.04-1.17.5-1.5 1.2-.87.3.26.9.48 1.33.48.45 0 .8.12.8.26 0 .32 1.45.06 1.68-.3.09-.14.44-.26.77-.26a.8.8 0 0 0 .77-.61c.17-.63.9-.65.76-.02-.16.7.8 2.43 1.34 2.44.74 0 1.59 1.96 1.59 3.64 0 .75.08 2.6.2 4.1l.19 2.74 2.19 1.2c1.2.67 2.27 1.2 2.36 1.2s.14-2.66.1-5.92c-.08-5.66-.06-5.92.48-5.82.53.09.55-.06.35-2.22-.18-2.02-.15-2.28.26-2.13.3.11.47.01.47-.26 0-.54.5-.59.68-.07.11.3.22.3.54 0 .53-.5.88-.47.88.07 0 .27.17.37.46.26.4-.15.44.11.26 2.13-.2 2.17-.17 2.3.36 2.22.54-.1.56.16.49 6.01l-.08 6.12 1.02-.17c.57-.09 1.16-.02 1.35.17.25.25.34.24.34-.02 0-.23.48-.36 1.3-.36 1.55 0 1.74-.15 1.4-1.05-.5-1.3 1.52-2.26 2.42-1.17.22.26.36 1 .32 1.62-.05.62.04 1.22.2 1.31.17.1.37-1.2.5-3.22.23-3.8.47-4.57 1.09-3.46.21.4.36.89.32 1.1-.05.2.05.37.21.37.16 0 .34-.22.39-.5.13-.64 2.87-.7 3.27-.07.2.3.27.19.27-.4 0-.46.12-.83.26-.83.33 0 1.1.9 1.34 1.57.3.82 2.13.57 2.25-.3.09-.6.27-.67 1.7-.67 1.24 0 1.64-.12 1.8-.53.19-.49.22-.49.6.03.23.3.35.73.27.94-.09.23.17.46.63.58.92.23 1.36.03 1.36-.62 0-.34.14-.29.55.21.63.79 1.3.56 1.23-.41-.1-1.35 0-1.6.44-1.01.23.3.35.79.27 1.09-.08.3 0 .64.18.75.2.13.33-.09.33-.56 0-.71.1-.77 1.36-.77 1.1 0 1.4.11 1.6.64.18.52.5.64 1.63.67.78.02 1.38-.1 1.36-.26-.03-.17.09-.63.25-1.04.3-.72.32-.72.63-.14.18.33.3.87.27 1.2-.04.45.16.6.94.67 1.32.13 1.96-.42 1.74-1.5-.15-.73-.08-.84.55-.84.55 0 .76-.2.92-.9.24-1.1.75-1.48.75-.57 0 1.1.38.38.95-1.77.29-1.1.52-2.77.5-3.7-.02-.93.05-1.82.14-1.97.1-.16.32-1.5.49-2.96s.4-3.15.51-3.73l.2-1.05.23 1.05c.13.58.33 2.2.44 3.6s.34 2.72.51 2.93c.17.2.22.9.1 1.59-.12.82.03 2.08.48 3.9.63 2.54.95 2.98 1.2 1.63.06-.34.42.47.84 1.87.4 1.36.84 2.48.97 2.48s.24.26.24.58.15.68.35.8c.23.15.29.05.16-.28-.21-.55.02-1.4.38-1.4.12 0 .3.7.4 1.55s.35 1.65.54 1.77c.19.12.24.37.12.57-.15.25.04.33.64.26.79-.1.87-.22 1-1.6.11-1.07.3-1.52.65-1.59.4-.08.46.12.33 1.27l-.15 1.37h2.52c1.8 0 2.71.13 3.19.47.64.44.67.43.67-.31 0-.89.81-1.36 1.24-.73.2.3.26.16.2-.48-.09-1.06.21-1.65.85-1.65.35 0 .4.2.26.9-.2.92.24 1.28.55.45.11-.28.57-.45 1.22-.45.99 0 1.04.06 1.13 1.12.08.98.2 1.13.84 1.13.67 0 .8-.2 1.23-1.8.35-1.34.62-1.82 1.05-1.88.45-.07.74.32 1.35 1.8.65 1.6.88 1.88 1.57 1.93.76.06.8-.01.86-1.34.03-.78.07-1.75.1-2.16s.14-1.63.29-2.7l.26-1.95.35 2.05c.2 1.12.3 2.4.23 2.85l-.12.8.46-.75.45-.75.02.82c.01 1.3.55.97.73-.45.21-1.66.57-6.56.62-8.47.03-1.07.16-1.48.44-1.41.26.06.35-.15.25-.63-.13-.68.4-4.96.8-6.51.11-.41.3-1.36.42-2.1l.23-1.35.4 2.1c.22 1.15.46 2.22.55 2.36.08.15.18.69.22 1.2.22 3.15.54 5.02.8 4.64.18-.26.25.1.2 1.1-.03.82.04 1.97.15 2.55.12.58.26 2.4.3 4.07.1 3.25.4 4.35.86 3.11.22-.59.32-.64.55-.27.23.36.28.33.3-.16.1-2.1.32-4.18.44-4.3.32-.32.48.25.5 1.72 0 .84.14 1.61.3 1.72.18.1 1.3-.5 2.53-1.35a17.41 17.41 0 0 1 2.44-1.54c.12 0 1.71.93 3.53 2.05 2.06 1.28 3.33 2.26 3.4 2.62.05.32.3.74.57.94.37.3.4.46.1.81-.3.35-.24 1.4.26 5.04.87 6.29.92 6.54 1.4 6.54.23 0 .42.13.42.3s.2.3.47.3c.66 0 1.33.74 1.33 1.48v.62H0zm15.82 2.83c0-1.3-.14-1.72-.72-2.27l-.71-.67-.64.81c-.45.57-.63 1.24-.63 2.27v1.46h2.7zm231.76-1.93c-.1-.78-.3-3.14-.46-5.24-.26-3.29-.4-3.92-.95-4.48l-.65-.64.18 1.17c.1.64.41 3.3.7 5.9.4 3.5.63 4.72.93 4.72.3 0 .37-.35.25-1.43zm-7.13-5.9l.08-6.87-.78.83-.77.84.21 6.13c.19 5.38.27 6.11.7 6.03.42-.08.49-.94.56-6.96zm3.5 1.1c-.17-5.03-.29-6.06-.76-6.82-.56-.9-.56-.9-.57-.15 0 1.14.6 10.18.77 11.62.1.7.3 1.28.47 1.28.2 0 .23-1.97.1-5.93zM5.17 34.94c0-2.3-.38-3.17-1.1-2.57-.27.22-.4 1.08-.4 2.55 0 2.16.01 2.2.75 2.2.73 0 .75-.04.75-2.18zm4.35-.28c0-1.81-.12-2.43-.53-2.84-.42-.41-.65-.46-1.05-.2-.4.25-.56.88-.67 2.8a12.77 12.77 0 0 0-.02 2.6c.08.08.62.1 1.2.05l1.07-.1zm12.75.12c0-1.98-.1-2.45-.6-2.9-.58-.52-.63-.52-1.2 0-.5.45-.6.92-.6 2.9v2.35h2.4zm3.33.1c-.09-2.29-.44-3.08-1.12-2.52-.28.23-.41 1.05-.41 2.58v2.23l.8-.1c.8-.09.8-.11.73-2.19zm-11.31-.64c.17-.46.22-.46.73 0 .3.27.82.49 1.16.49.58 0 .61-.16.57-3.13-.04-3.03-.07-3.16-.92-4.05-.48-.5-1-.92-1.15-.92-.15 0-.67.42-1.15.93-.84.9-.87 1.02-.87 4.05 0 3.09 0 3.12.72 3.12.4 0 .8-.22.9-.5zm35.19-.11c-.03-.33-.15-.6-.28-.6s-.24.27-.24.6.13.6.28.6.26-.27.24-.6zm1.28-.15c0-.41-.13-.75-.3-.75s-.3.34-.3.75.14.75.3.75.3-.34.3-.75zm1.2-1.05c0-.33-.13-.6-.3-.6s-.3.27-.3.6.14.6.3.6.3-.27.3-.6zm3.9-.36c0-.64-.14-.84-.6-.84-.46 0-.6.2-.6.88 0 .7.13.87.6.84.45-.04.6-.26.6-.88zm3-.07c0-.4-.13-.82-.3-.92-.17-.1-.3.2-.3.73 0 .5.14.92.3.92s.3-.33.3-.73zm3.9-.16c0-.13-.19-.32-.41-.4-.3-.12-.38 0-.27.4.14.55.68.55.68 0zM37.15 30c-.06-3.04-.62-3.34-.74-.4-.1 2.34.06 3.18.52 2.9.15-.1.25-1.22.22-2.5zm1.24-.25c-.05-1.3-.2-2.34-.34-2.3-.2.06-.33 3.35-.21 5.09 0 .11.15.07.33-.1.18-.19.27-1.32.22-2.69zm1.03.25c-.03-2.96-.01-2.84-.39-2.6-.25.15-.25 3.19 0 5.2.01.07.11.04.22-.07s.19-1.25.17-2.53zm10.13-.24c0-.4-.13-.73-.3-.73s-.3.41-.3.92c0 .53.13.84.3.73.17-.1.3-.52.3-.92zm.9-.2c0-.68-.09-.85-.27-.57-.15.23-.22.64-.17.9.13.65.12.64.3.64.07 0 .14-.44.14-.98zm186.9.54c0-.08-.14-.22-.3-.32s-.3-.04-.3.13c0 .18.13.32.3.32s.3-.06.3-.13zm-84.5-1.01c.25-.38-.3-1.06-.67-.83-.48.3-.41 1.07.1 1.07.24 0 .5-.1.58-.24zm84.5-.81c0-1-.37-1.38-.74-.76-.24.38.13 1.8.47 1.8.15 0 .27-.46.27-1.04zm-181.71-.75c0-.96-.13-1.35-.42-1.35-.3 0-.45.45-.52 1.45-.08 1.24-.01 1.43.42 1.35.4-.08.52-.42.52-1.45zm6.8.15c0-.74-.13-1.35-.3-1.35s-.3.6-.3 1.35.14 1.35.3 1.35.3-.6.3-1.35zm-10.6.07c-.08-.2-.15-.03-.15.38s.07.58.15.37c.09-.2.09-.54 0-.75zm7.6-.4c0-1.14-.08-1.35-.52-1.27-.38.08-.55.45-.62 1.38-.08 1.11-.01 1.27.53 1.27.53 0 .61-.19.61-1.37zm7.5-.03c0-.71-.74-.26-.85.52-.09.62-.04.66.38.31.26-.22.47-.6.47-.83zm161.1-.17c0-.12-.13-.22-.3-.22s-.29.3-.29.67c0 .55.06.6.3.23.16-.25.3-.55.3-.68zM69.45 25.9c.1-.24.04-.52-.11-.62-.16-.1-.29-.11-.29-.03s-.08.35-.18.61c-.1.27-.05.48.12.48s.37-.2.46-.44zm83.25-1.4c-.06-.56-.24-.98-.4-.95-.36.08-.57 1.45-.31 2.11.3.8.81-.04.7-1.16zm47.93-.78c-.3-.3-.56.15-.3.56.18.3.25.3.36 0 .07-.2.04-.46-.06-.56zm-186.24-1c.08-.7.07-.71-.37-.15-.56.7-.6 1.16-.09 1 .2-.07.41-.46.46-.86zm1.21.17c-.37-.81-1.03-1.06-.73-.28.1.26.19.6.19.75 0 .15.2.28.44.28.36 0 .38-.14.1-.75zm46.86.02c0-.4-.14-.82-.3-.92-.18-.11-.3.2-.3.73 0 .5.13.92.3.92s.3-.33.3-.73zm135.07.53c-.2-.08-.55-.08-.75 0s-.04.15.37.15.58-.07.38-.15zM55.8 22.5c.07-.5-.06-.67-.53-.67-.46 0-.62.2-.62.77 0 .99 1 .9 1.15-.1zm3.65-.16c0-.47-.19-.7-.6-.73-.45-.03-.6.14-.6.69 0 .53.17.73.6.73.43 0 .6-.2.6-.69zm136.35.09c.1-.17.04-.3-.13-.3-.18 0-.32.13-.32.3s.06.3.13.3c.08 0 .22-.14.32-.3zm-52.95-1.05c0-.58-.13-1.05-.3-1.05s-.3.47-.3 1.05.14 1.05.3 1.05.3-.47.3-1.05zm-1.8-.75c0-.66-.13-1.2-.3-1.2-.33 0-.42 1.88-.1 2.2.35.35.4.23.4-1zm11.65-.08c-.06-.53-.23-.97-.4-.97s-.34.44-.4.97c-.06.74.03.98.4.98s.47-.24.4-.98zM105 15.7c.07-.59-.02-.8-.3-.7-.22.07-.44.5-.5.96-.07.59.02.8.3.7.22-.07.45-.5.5-.96zm47.75.13c0-.6-.15-.9-.45-.9-.45 0-.64 1.2-.25 1.6.43.43.7.16.7-.7zm-57.3-1.37c0-.57-.13-1.03-.3-1.03s-.3.55-.3 1.22c0 .73.13 1.14.3 1.03.17-.1.3-.65.3-1.22zm12.26.34c.06-.59-.02-.8-.3-.7-.22.07-.45.5-.5.96-.07.59.02.8.3.7.22-.07.44-.5.5-.96zm-10.15-.94c0-.83-.12-1.3-.3-1.18-.16.1-.3.72-.3 1.37s.14 1.18.3 1.18.3-.62.3-1.37zm2.4-.6c0-.9-.13-1.63-.3-1.63-.17 0-.3.8-.3 1.82 0 1.13.11 1.74.3 1.63.17-.1.3-.92.3-1.82zm10.45.64c.07-.59-.02-.8-.3-.7-.22.07-.44.5-.5.96-.07.59.02.8.3.7.22-.07.45-.5.5-.96zm-11.34-.79c0-.65-.14-1.18-.3-1.18s-.3.61-.3 1.37c0 .83.11 1.3.3 1.18.16-.1.3-.72.3-1.37zm23.4.32c0-.5-.14-.9-.3-.9-.34 0-.42 1.28-.1 1.6.33.34.4.23.4-.7zm-9.3-.47c0-.8-.52-1-.8-.28-.23.6.11 1.43.5 1.2.16-.1.3-.52.3-.92zm7.2-.13c0-.58-.16-.9-.44-.9-.3 0-.4.26-.33.82.12 1.02.1.98.47.98.16 0 .3-.4.3-.9zm-3.97-1.33c-.14-1-.68-.72-.78.41-.1.92-.05.99.39.63.26-.23.44-.7.4-1.04zm-10.14-.66c0-.82-.11-1.27-.3-1.16-.16.1-.3.8-.3 1.53 0 .83.12 1.28.3 1.17.17-.1.3-.8.3-1.54zm2.7-.71c0-.83-.13-1.5-.3-1.5s-.3.67-.3 1.5.14 1.5.3 1.5.3-.68.3-1.5zm2.95-1c.07-1.1-.01-1.4-.38-1.4-.36 0-.47.34-.47 1.52 0 1.99.72 1.88.85-.12zm10.56.4c0-.66-.14-1.2-.3-1.2s-.3.54-.3 1.2.13 1.2.3 1.2.3-.54.3-1.2zm-7.86-1.3c.07-1.43.01-1.67-.38-1.52-.6.23-.69 3.54-.09 3.34.23-.07.41-.8.47-1.82zm5.7.62c-.11-1.48-.62-1.59-.69-.15-.05 1.11.05 1.43.48 1.43.17 0 .26-.57.2-1.28zm-20.64-.07c0-.41-.14-.75-.3-.75s-.3.34-.3.75.13.75.3.75.3-.34.3-.75zm79.5 11.55c0-.17.13-.3.3-.3s.3.13.3.3-.14.3-.3.3-.3-.14-.3-.3z"/>
</svg>
